asgiref==3.7.2
certifi==2024.2.2
charset-normalizer==3.3.2
dj-rest-auth==5.0.2
Django==5.0.2
djangorestframework==3.14.0
idna==3.6
pytz==2024.1
requests==2.31.0
sqlparse==0.4.4
tzdata==2024.1
urllib3==2.2.1
